%YAML 1.1
%TAG !u! tag:unity3d.com,2011:
--- !u!114 &11400000
MonoBehaviour:
  m_ObjectHideFlags: 0
  m_CorrespondingSourceObject: {fileID: 0}
  m_PrefabInstance: {fileID: 0}
  m_PrefabAsset: {fileID: 0}
  m_GameObject: {fileID: 0}
  m_Enabled: 1
  m_EditorHideFlags: 0
  m_Script: {fileID: 11500000, guid: f5bbc407a12631f45b148948d94af03c, type: 3}
  m_Name: PoolService
  m_EditorClassIdentifier: 
  _serviceContainer: {fileID: 11400000, guid: 321b74fd413d7a04489e2597a09a3220, type: 2}
