%YAML 1.1
%TAG !u! tag:unity3d.com,2011:
--- !u!114 &11400000
MonoBehaviour:
  m_ObjectHideFlags: 0
  m_CorrespondingSourceObject: {fileID: 0}
  m_PrefabInstance: {fileID: 0}
  m_PrefabAsset: {fileID: 0}
  m_GameObject: {fileID: 0}
  m_Enabled: 1
  m_EditorHideFlags: 0
  m_Script: {fileID: 11500000, guid: f231042d1177cb047a1acfb9bb164874, type: 3}
  m_Name: ServiceContainer
  m_EditorClassIdentifier: 
  CoroutineService: {fileID: 11400000, guid: ca437cd2c3df9fe4dba1a02b6033efa4, type: 2}
  MessageBus: {fileID: 11400000, guid: 2f081908a2be7f54ebc31def8c2fe3ee, type: 2}
  UpdateService: {fileID: 11400000, guid: 4ffaf98b0e5c22a41bbb0c8c8fd839f9, type: 2}
  AssetLoaderService: {fileID: 11400000, guid: 9f150a11d9f53284b90557f85c2d19cf, type: 2}
  WorldReferenceService: {fileID: 11400000, guid: 98f64bf0732bd41409160e2a98c88bb6,
    type: 2}
  InputService: {fileID: 11400000, guid: 9269e709865474c4ca4de8d48043c97a, type: 2}
  EntityManagerService: {fileID: 11400000, guid: 23b9f8da9269b154e84301be63d2330e,
    type: 2}
  PoolService: {fileID: 11400000, guid: 2dac56c9baa27b04897f91e6f2e5aa43, type: 2}
  GameManagerService: {fileID: 11400000, guid: b7a11920bd8f76845bd684e9fe101455, type: 2}
  SerializationService: {fileID: 11400000, guid: b07ddff286e33f54fac45e20d03ebf79,
    type: 2}
