%YAML 1.1
%TAG !u! tag:unity3d.com,2011:
--- !u!114 &11400000
MonoBehaviour:
  m_ObjectHideFlags: 0
  m_CorrespondingSourceObject: {fileID: 0}
  m_PrefabInstance: {fileID: 0}
  m_PrefabAsset: {fileID: 0}
  m_GameObject: {fileID: 0}
  m_Enabled: 1
  m_EditorHideFlags: 0
  m_Script: {fileID: 11500000, guid: ea526fdc59119b64a9daeff0013d3b24, type: 3}
  m_Name: EnemyLevel2BehaviourData
  m_EditorClassIdentifier: 
  DistanceToShootPlayer: 1
  WaitToShootTimer: 0.2
  DistanceToRetreat: 0.64
  ScoreOnDeath: 50
